REPORTE PRÁCTICA 6:Genómica poblacional y ancestría
…
## 
## ── Column specification ────────────────────────────────────────────────────────
## cols(
##   CHROM = col_double(),
##   BIN_START = col_double(),
##   BIN_END = col_double(),
##   N_VARIANTS = col_double(),
##   PI = col_double()
## )

pi_EU

## # A tibble: 4,903 x 5
##    CHROM BIN_START BIN_END N_VARIANTS         PI
##    <dbl>     <dbl>   <dbl>      <dbl>      <dbl>
##  1     1         1  200000          2 0.00000467
##  2     1   1000001 1200000          1 0.00000167
##  3     1   1200001 1400000          1 0.00000167
##  4     1   2200001 2400000          2 0.00000467
##  5     1   2800001 3000000          1 0.00000267
##  6     1   3000001 3200000          1 0.00000267
##  7     1   3200001 3400000          4 0.00001   
##  8     1   3400001 3600000          3 0.000006  
##  9     1   3600001 3800000          2 0.00000533
## 10     1   4000001 4200000          1 0.00000267
## # … with 4,893 more rows
pi_OC <- read_delim("OC.windowed.pi",delim = "\t")

## 
## ── Column specification ────────────────────────────────────────────────────────
## cols(
##   CHROM = col_double(),
##   BIN_START = col_double(),
##   BIN_END = col_double(),
##   N_VARIANTS = col_double(),
##   PI = col_double()
## )

pi_OC

## # A tibble: 3,236 x 5
##    CHROM BIN_START BIN_END N_VARIANTS         PI
##    <dbl>     <dbl>   <dbl>      <dbl>      <dbl>
##  1     1         1  200000          2 0.00000533
##  2     1    200001  400000          1 0.000003  
##  3     1   1200001 1400000          1 0.00000267
##  4     1   1800001 2000000          1 0.00000167
##  5     1   2200001 2400000          1 0.00000267
##  6     1   3200001 3400000          3 0.000006  
##  7     1   3400001 3600000          1 0.00000167
##  8     1   4400001 4600000          2 0.00000333
##  9     1   4800001 5000000          1 0.000003  
## 10     1   9000001 9200000          1 0.00000267
## # … with 3,226 more rows
pi_US <- read_delim("US.windowed.pi",delim = "\t")

## 
## ── Column specification ────────────────────────────────────────────────────────
## cols(
##   CHROM = col_double(),
##   BIN_START = col_double(),
##   BIN_END = col_double(),
##   N_VARIANTS = col_double(),
##   PI = col_double()
## )

pi_US

## # A tibble: 4,774 x 5
##    CHROM BIN_START BIN_END N_VARIANTS         PI
##    <dbl>     <dbl>   <dbl>      <dbl>      <dbl>
##  1     1    200001  400000          1 0.000003  
##  2     1   1000001 1200000          2 0.000006  
##  3     1   1600001 1800000          1 0.00000167
##  4     1   1800001 2000000          1 0.000003  
##  5     1   2200001 2400000          1 0.000003  
##  6     1   2400001 2600000          1 0.000003  
##  7     1   2800001 3000000          1 0.000003  
##  8     1   3000001 3200000          2 0.000006  
##  9     1   3200001 3400000          6 0.0000177 
## 10     1   3400001 3600000          2 0.000006  
## # … with 4,764 more rows
…
# Desequilibrio de ligamiento
ld <- read_csv("EU_OC_US.windowed.ld.csv")

## 
## ── Column specification ────────────────────────────────────────────────────────
## cols(
##   dist = col_double(),
##   meanR2 = col_double(),
##   pop = col_character()
## )

ld

## # A tibble: 256 x 3
##     dist meanR2 pop  
##    <dbl>  <dbl> <chr>
##  1  1000  0.891 EU   
##  2  2000  0.9   EU   
##  3  3000  0.781 EU   
##  4  4000  0.75  EU   
##  5  5000  0.25  EU   
##  6  6000  1     EU   
##  7  7000  1     EU   
##  8  8000  0.85  EU   
##  9 10000  0.5   EU   
## 10 12000  1     EU   
## # … with 246 more rows
…
